module brick

require (
	github.com/DataDog/datadog-go v0.0.0-20180822151419-281ae9f2d895 // indirect
	github.com/armon/go-metrics v0.0.0-20180917152333-f0300d1749da // indirect
	github.com/circonus-labs/circonus-gometrics v2.2.4+incompatible // indirect
	github.com/circonus-labs/circonusllhist v0.0.0-20180430145027-5eb751da55c6 // indirect
	github.com/codahale/hdrhistogram v0.0.0-20161010025455-3a0bb77429bd // indirect
	github.com/go-redis/redis v6.15.1+incompatible
	github.com/golang/protobuf v1.2.0
	github.com/gopherjs/gopherjs v0.0.0-20181017120253-0766667cb4d1 // indirect
	github.com/grpc-ecosystem/grpc-opentracing v0.0.0-20180507213350-8e809c8a8645
	github.com/hashicorp/consul v1.3.0
	github.com/hashicorp/go-cleanhttp v0.5.0 // indirect
	github.com/hashicorp/go-immutable-radix v1.0.0 // indirect
	github.com/hashicorp/go-msgpack v0.0.0-20150518234257-fa3f63826f7c // indirect
	github.com/hashicorp/go-multierror v1.0.0 // indirect
	github.com/hashicorp/go-retryablehttp v0.0.0-20180718195005-e651d75abec6 // indirect
	github.com/hashicorp/go-rootcerts v0.0.0-20160503143440-6bb64b370b90 // indirect
	github.com/hashicorp/go-sockaddr v0.0.0-20180320115054-6d291a969b86 // indirect
	github.com/hashicorp/go-uuid v1.0.1 // indirect
	github.com/hashicorp/memberlist v0.1.0 // indirect
	github.com/hashicorp/serf v0.8.1 // indirect
	github.com/hashicorp/yamux v0.0.0-20181012175058-2f1d1f20f75d // indirect
	github.com/husobee/vestigo v1.1.0
	github.com/jtolds/gls v4.2.1+incompatible // indirect
	github.com/kr/pretty v0.1.0 // indirect
	github.com/miekg/dns v1.0.14 // indirect
	github.com/mitchellh/go-homedir v1.0.0 // indirect
	github.com/mitchellh/mapstructure v1.1.2 // indirect
	github.com/onsi/ginkgo v1.7.0 // indirect
	github.com/onsi/gomega v1.4.3 // indirect
	github.com/opentracing/opentracing-go v1.0.2
	github.com/pascaldekloe/goe v0.0.0-20180627143212-57f6aae5913c // indirect
	github.com/prometheus/client_golang v0.9.1
	github.com/prometheus/common v0.2.0 // indirect
	github.com/prometheus/procfs v0.0.0-20190219184716-e4d4a2206da0 // indirect
	github.com/sean-/seed v0.0.0-20170313163322-e2103e2c3529 // indirect
	github.com/sirupsen/logrus v1.2.0
	github.com/smartystreets/assertions v0.0.0-20180927180507-b2de0cb4f26d // indirect
	github.com/smartystreets/goconvey v0.0.0-20180222194500-ef6db91d284a
	github.com/tv42/httpunix v0.0.0-20150427012821-b75d8614f926 // indirect
	github.com/uber-go/atomic v1.3.2 // indirect
	github.com/uber/jaeger-client-go v2.15.0+incompatible
	github.com/uber/jaeger-lib v1.5.0
	go.uber.org/atomic v1.3.2 // indirect
	golang.org/x/crypto v0.0.0-20180904163835-0709b304e793
	golang.org/x/net v0.0.0-20181114220301-adae6a3d119a
	google.golang.org/grpc v1.16.0
	gopkg.in/check.v1 v1.0.0-20180628173108-788fd7840127 // indirect
	gopkg.in/square/go-jose.v2 v2.2.2
	gopkg.in/vmihailenco/msgpack.v2 v2.9.1 // indirect
)
